{"data": {"list": [{"no": 85657995, "type": "style", "typeName": "스타일", "subType": null, "content": "옷 자체는 신축성도 있고 편합니다 근데 미드라이즈에 가깝습니다. \n정말 로우라이즈처럼 골반에 입으면 밑위가 ㄸ싼바지처럼 남고 가랑이를 맞춰 올려입으면 허리가 엄청 남아요\n허벅지랑 힙도 넉넉해서 저랑 스펙 비슷하시면 XS가 나으실 듯 해요\n그리고 밑단도 모델샷처럼 종아리에 착 붙거나 일자로 안 떨어지고 나팔로 쫙 퍼집니다...이게 특히 밤티임\n허벅지 폭, 밑단 폭 전부 수선해서 입고 있어요 사진도 수선한 것", "commentCount": 0, "grade": "4", "goods": {"goodsNo": 5928448, "goodsSubNo": 0, "goodsName": "Low Rise Capri Jeans DCWPT023CPBLACK", "goodsImageFile": "/images/goods_img/20260122/5928448/5928448_17696771901135_100.jpg", "goodsImageExtension": "jpg", "goodsOptionKindCode": "CLOTHES", "brandName": "데케트 우먼", "brandEnglishName": "DECET WOMEN", "brand": "decetwomen", "brandBestYn": "N", "brandConcatenation": "decetwomen@#데케트 우먼@#DECET WOMEN", "goodsCreateDate": "2026-01-22T18:39:15.000+09:00", "goodsImageIdx": 0, "saleStatCode": "40", "saleStatLabel": null, "goodsSex": 0, "goodsSexClassification": null, "showSoldOut": false}, "userImageFile": "/mfile_s01/_simbols/y/1f670bbc07100f25b7f16815282e4bb5_20240507151858.jpg", "goodsOption": "S", "commentReplyCount": 0, "userStaffYn": "N", "images": [{"altText": "데케트 우먼(DECET WOMEN) Low Rise Capri Jeans DCWPT023CPBLACK 후기", "imageUrl": "/data/estimate/5928448_0/fef1890de97643238923bfa6511b9bdc.jpg"}, {"altText": "데케트 우먼(DECET WOMEN) Low Rise Capri Jeans DCWPT023CPBLACK 후기", "imageUrl": "/data/estimate/5928448_0/d0fdc077a1a949c6af2f7e3e35704aa1.jpg"}], "likeCount": 5, "userReactionType": null, "createDate": "2026-06-24T03:35:47.000+09:00", "goodsThumbnailImageUrl": "/images/goods_img/20260122/5928448/5928448_17696771901135_100.jpg", "userId": null, "encryptedUserId": "1f670bbc07100f25b7f16815282e4bb5", "userProfileInfo": {"userNickName": "선키스드", "userLevel": 7, "userOutYn": "N", "userStaffYn": "N", "reviewSex": "여성", "userWeight": 45, "userHeight": 165, "userSkinInfo": null, "skinType": null, "skinTone": null, "skinWorry": null}, "orderOptionNo": 430037839, "channelSource": "musinsa", "channelSourceName": "musinsa", "channelActivityId": "430037839", "countryCode": "KR", "relatedNo": 0, "isFirstReview": 1, "reviewProfileTypeEnum": "BODY", "specialtyCodes": null, "reviewerWeeklyRanking": null, "reviewerMonthlyRanking": null, "reviewSurveySatisfaction": {"surveyKind": "SATISFACTION", "questions": [{"questionId": 1008, "attribute": "사이즈", "answers": [{"answerId": 5036, "answerShortText": "조금 큼"}]}, {"questionId": 1009, "attribute": "화면 대비 색감", "answers": [{"answerId": 5040, "answerShortText": "화면과 비슷"}]}, {"questionId": 1010, "attribute": "퀄리티", "answers": [{"answerId": 5046, "answerShortText": "좋음"}]}, {"questionId": 1011, "attribute": "신축성", "answers": [{"answerId": 5051, "answerShortText": "강함"}]}]}, "reviewSurveyRepurchase": null, "showUserProfile": true}, {"no": 85775966, "type": "style", "typeName": "스타일", "subType": null, "content": "스트레이트 체형 강추.. 로우라이즈라 진짜 예뻐용 저는 키가 작아서 길이가 약간 애매한거 같긴한ㄷㅔ 그래도 예쁨 ㅠㅠ", "commentCount": 0, "grade": "5", "goods": {"goodsNo": 5928448, "goodsSubNo": 0, "goodsName": "Low Rise Capri Jeans DCWPT023CPBLACK", "goodsImageFile": "/images/goods_img/20260122/5928448/5928448_17696771901135_100.jpg", "goodsImageExtension": "jpg", "goodsOptionKindCode": "CLOTHES", "brandName": "데케트 우먼", "brandEnglishName": "DECET WOMEN", "brand": "decetwomen", "brandBestYn": "N", "brandConcatenation": "decetwomen@#데케트 우먼@#DECET WOMEN", "goodsCreateDate": "2026-01-22T18:39:15.000+09:00", "goodsImageIdx": 0, "saleStatCode": "40", "saleStatLabel": null, "goodsSex": 0, "goodsSexClassification": null, "showSoldOut": false}, "userImageFile": "/mfile_s01/_simbols/c/f5981281c9339de2f92678c74f2610c8_20240817141017.", "goodsOption": "S", "commentReplyCount": 0, "userStaffYn": "N", "images": [{"altText": "데케트 우먼(DECET WOMEN) Low Rise Capri Jeans DCWPT023CPBLACK 후기", "imageUrl": "/data/estimate/5928448_0/d3d1f2919eb94f92aabdc4c8fcda38d1.jpg"}], "likeCount": 1, "userReactionType": null, "createDate": "2026-06-26T08:54:21.000+09:00", "goodsThumbnailImageUrl": "/images/goods_img/20260122/5928448/5928448_17696771901135_100.jpg", "userId": null, "encryptedUserId": "f5981281c9339de2f92678c74f2610c8", "userProfileInfo": {"userNickName": "현명한플럼패딩백", "userLevel": 4, "userOutYn": "N", "userStaffYn": "N", "reviewSex": "여성", "userWeight": 50, "userHeight": 156, "userSkinInfo": null, "skinType": null, "skinTone": null, "skinWorry": null}, "orderOptionNo": 425509625, "channelSource": "musinsa", "channelSourceName": "musinsa", "channelActivityId": "425509625", "countryCode": "KR", "relatedNo": 0, "isFirstReview": 1, "reviewProfileTypeEnum": "BODY", "specialtyCodes": null, "reviewerWeeklyRanking": null, "reviewerMonthlyRanking": null, "reviewSurveySatisfaction": {"surveyKind": "SATISFACTION", "questions": [{"questionId": 1008, "attribute": "사이즈", "answers": [{"answerId": 5035, "answerShortText": "정사이즈"}]}, {"questionId": 1009, "attribute": "화면 대비 색감", "answers": [{"answerId": 5040, "answerShortText": "화면과 비슷"}]}, {"questionId": 1010, "attribute": "퀄리티", "answers": [{"answerId": 5047, "answerShortText": "매우 좋음"}]}, {"questionId": 1011, "attribute": "신축성", "answers": [{"answerId": 5050, "answerShortText": "적당함"}]}]}, "reviewSurveyRepurchase": null, "showUserProfile": true}], "total": 53, "page": {"page": 0, "totalPages": 6, "startPage": 1, "lastPage": 5}}, "meta": {"result": "SUCCESS", "errorCode": null, "message": null}}